…
The two temporary tables can then be joined to provide the final table.

::: {#cb7 .sourceCode}
``` {.sourceCode .r}
sql <- "
SELECT se.*, ts.total_sales
FROM __temp__.sales_employees AS se
INNER JOIN __temp__.total_sales AS ts
ON se.employee_id = ts.employee_id
"
read_sql_query(sql)
#> # A tibble: 41 x 5
#>    employee_id forename surname   department_name total_sales
#>          <int> <chr>    <chr>     <chr>                 <dbl>
#>  1           1 Dexter   Mitchell  Sales                 2912.
#>  2           2 Summer   Bennett   Sales                 1786.
#>  3           3 Pip      Carter    Sales                 2591.
#>  4           4 Bella    Long      Sales                 2997.
#>  5           6 Robert   Roberts   Sales                 2208.
#>  6           7 Iris     Alexander Sales                 2465.
#>  7           9 Evan     Carter    Sales                 2280.
#>  8          10 Lauren   Powell    Sales                 1936.
#>  9          11 Alice    James     Sales                 3093.
#> 10          12 Owen     Scott     Sales                 2286.
#> # … with 31 more rows
```
…
